<?xml version="1.0" standalone="no"?>
<!DOCTYPE svg PUBLIC "-//W3C//DTD SVG 20010904//EN"
 "http://www.w3.org/TR/2001/REC-SVG-20010904/DTD/svg10.dtd">
<svg version="1.0" xmlns="http://www.w3.org/2000/svg"
 width="315.000000pt" height="315.000000pt" viewBox="0 0 315.000000 315.000000"
 preserveAspectRatio="xMidYMid meet">
<metadata>
Created by potrace 1.11, written by Peter Selinger 2001-2013
</metadata>
<g transform="translate(0.000000,315.000000) scale(0.100000,-0.100000)"
fill="#000000" stroke="none">
<path d="M1435 3068 c-77 -44 -164 -94 -193 -110 -30 -17 -97 -56 -150 -87
-54 -31 -104 -60 -112 -64 -8 -4 -31 -17 -50 -28 -19 -12 -141 -82 -270 -157
-272 -157 -317 -183 -345 -199 -11 -7 -39 -22 -63 -35 l-42 -22 0 -790 0 -791
23 -11 c12 -6 90 -50 172 -99 83 -48 168 -97 190 -110 22 -12 103 -58 179
-103 76 -45 140 -82 142 -82 2 0 33 -18 69 -40 36 -22 67 -40 69 -40 2 0 50
-27 105 -60 56 -33 106 -60 111 -60 6 0 10 -4 10 -10 0 -5 4 -10 9 -10 5 0 72
-36 149 -80 l140 -81 66 41 c37 22 69 40 73 40 3 0 14 6 22 14 9 8 39 26 66
41 28 14 66 36 85 47 79 46 438 253 481 277 25 14 163 94 307 176 l261 150 0
790 0 790 -426 245 c-234 135 -447 257 -472 271 -25 15 -131 76 -236 136 -104
61 -199 115 -210 121 -18 9 -42 -2 -160 -70z"/>
</g>
</svg>
